%YAML 1.1
%TAG !u! tag:unity3d.com,2011:
--- !u!1 &8571175782880655796
GameObject:
  m_ObjectHideFlags: 0
  m_CorrespondingSourceObject: {fileID: 0}
  m_PrefabInstance: {fileID: 0}
  m_PrefabAsset: {fileID: 0}
  serializedVersion: 6
  m_Component:
  - component: {fileID: 8571175782880655800}
  - component: {fileID: 8571175782880655803}
  - component: {fileID: 8571175782880655802}
  - component: {fileID: 8571175782880655797}
  - component: {fileID: 8571175782880655801}
  m_Layer: 9
  m_Name: Zombie egg
  m_TagString: zombieegg
  m_Icon: {fileID: 0}
  m_NavMeshLayer: 0
  m_StaticEditorFlags: 0
  m_IsActive: 1
--- !u!4 &8571175782880655800
Transform:
  m_ObjectHideFlags: 0
  m_CorrespondingSourceObject: {fileID: 0}
  m_PrefabInstance: {fileID: 0}
  m_PrefabAsset: {fileID: 0}
  m_GameObject: {fileID: 8571175782880655796}
  m_LocalRotation: {x: 0, y: 0, z: 0, w: 1}
  m_LocalPosition: {x: 0, y: 0, z: 0}
  m_LocalScale: {x: 0.106087275, y: 0.106087275, z: 0.106087275}
  m_Children: []
  m_Father: {fileID: 0}
  m_RootOrder: 0
  m_LocalEulerAnglesHint: {x: 0, y: 0, z: 0}
--- !u!212 &8571175782880655803
SpriteRenderer:
  m_ObjectHideFlags: 0
  m_CorrespondingSourceObject: {fileID: 0}
  m_PrefabInstance: {fileID: 0}
  m_PrefabAsset: {fileID: 0}
  m_GameObject: {fileID: 8571175782880655796}
  m_Enabled: 1
  m_CastShadows: 0
  m_ReceiveShadows: 0
  m_DynamicOccludee: 1
  m_MotionVectors: 1
  m_LightProbeUsage: 1
  m_ReflectionProbeUsage: 1
  m_RenderingLayerMask: 1
  m_RendererPriority: 0
  m_Materials:
  - {fileID: 10754, guid: 0000000000000000f000000000000000, type: 0}
  m_StaticBatchInfo:
    firstSubMesh: 0
    subMeshCount: 0
  m_StaticBatchRoot: {fileID: 0}
  m_ProbeAnchor: {fileID: 0}
  m_LightProbeVolumeOverride: {fileID: 0}
  m_ScaleInLightmap: 1
  m_PreserveUVs: 0
  m_IgnoreNormalsForChartDetection: 0
  m_ImportantGI: 0
  m_StitchLightmapSeams: 0
  m_SelectedEditorRenderState: 0
  m_MinimumChartSize: 4
  m_AutoUVMaxDistance: 0.5
  m_AutoUVMaxAngle: 89
  m_LightmapParameters: {fileID: 0}
  m_SortingLayerID: 0
  m_SortingLayer: 0
  m_SortingOrder: 0
  m_Sprite: {fileID: 21300000, guid: 91cdb77de7b8cc5458218942cc34ca2f, type: 3}
  m_Color: {r: 1, g: 1, b: 1, a: 1}
  m_FlipX: 0
  m_FlipY: 0
  m_DrawMode: 0
  m_Size: {x: 4.32, y: 5.82}
  m_AdaptiveModeThreshold: 0.5
  m_SpriteTileMode: 0
  m_WasSpriteAssigned: 1
  m_MaskInteraction: 0
  m_SpriteSortPoint: 0
--- !u!60 &8571175782880655802
PolygonCollider2D:
  m_ObjectHideFlags: 0
  m_CorrespondingSourceObject: {fileID: 0}
  m_PrefabInstance: {fileID: 0}
  m_PrefabAsset: {fileID: 0}
  m_GameObject: {fileID: 8571175782880655796}
  m_Enabled: 1
  m_Density: 1
  m_Material: {fileID: 0}
  m_IsTrigger: 0
  m_UsedByEffector: 0
  m_UsedByComposite: 0
  m_Offset: {x: 0, y: 0}
  m_SpriteTilingProperty:
    border: {x: 0, y: 0, z: 0, w: 0}
    pivot: {x: 0.5, y: 0.5}
    oldSize: {x: 4.32, y: 5.82}
    newSize: {x: 4.32, y: 5.82}
    adaptiveTilingThreshold: 0.5
    drawMode: 0
    adaptiveTiling: 0
  m_AutoTiling: 0
  m_Points:
    m_Paths:
    - - {x: 0.91999996, y: -2.73}
      - {x: 1.03, y: -2.6599998}
      - {x: 1.1999999, y: -2.51}
      - {x: 1.31, y: -2.3999999}
      - {x: 1.39, y: -2.31}
      - {x: 1.51, y: -2.1599998}
      - {x: 1.62, y: -2.02}
      - {x: 1.76, y: -1.8199999}
      - {x: 1.81, y: -1.7199999}
      - {x: 1.99, y: -1.37}
      - {x: 2.02, y: -1.3}
      - {x: 2.05, y: -1.22}
      - {x: 2.08, y: -1.13}
      - {x: 2.11, y: -1.02}
      - {x: 2.1499999, y: -0.82}
      - {x: 2.1599998, y: -0.75}
      - {x: 2.1599998, y: -0.06}
      - {x: 2.1499999, y: 0.07}
      - {x: 2.1299999, y: 0.26}
      - {x: 2.11, y: 0.41}
      - {x: 2.07, y: 0.65999997}
      - {x: 2.05, y: 0.75}
      - {x: 2.02, y: 0.87}
      - {x: 1.9799999, y: 1.02}
      - {x: 1.92, y: 1.1999999}
      - {x: 1.8, y: 1.4699999}
      - {x: 1.68, y: 1.6899999}
      - {x: 1.5999999, y: 1.8199999}
      - {x: 1.5, y: 1.9699999}
      - {x: 1.4399999, y: 2.05}
      - {x: 1.31, y: 2.21}
      - {x: 1.12, y: 2.4099998}
      - {x: 0.96999997, y: 2.54}
      - {x: 0.71, y: 2.72}
      - {x: 0.45, y: 2.84}
      - {x: 0.32999998, y: 2.8799999}
      - {x: 0.21, y: 2.9099998}
      - {x: -0.14999999, y: 2.9099998}
      - {x: -0.28, y: 2.8799999}
      - {x: -0.45999998, y: 2.81}
      - {x: -0.65999997, y: 2.71}
      - {x: -0.81, y: 2.61}
      - {x: -0.95, y: 2.49}
      - {x: -1.22, y: 2.22}
      - {x: -1.27, y: 2.1599998}
      - {x: -1.3399999, y: 2.07}
      - {x: -1.4399999, y: 1.92}
      - {x: -1.64, y: 1.51}
      - {x: -1.7199999, y: 1.3299999}
      - {x: -1.8, y: 1.14}
      - {x: -1.89, y: 0.90999997}
      - {x: -1.9599999, y: 0.75}
      - {x: -2.05, y: 0.42}
      - {x: -2.07, y: 0.34}
      - {x: -2.1299999, y: 0.08}
      - {x: -2.1499999, y: -0.04}
      - {x: -2.1599998, y: -0.12}
      - {x: -2.1599998, y: -0.59999996}
      - {x: -2.1399999, y: -0.84}
      - {x: -2.1, y: -1.06}
      - {x: -2.07, y: -1.14}
      - {x: -2.04, y: -1.29}
      - {x: -1.9599999, y: -1.5}
      - {x: -1.9, y: -1.64}
      - {x: -1.76, y: -1.92}
      - {x: -1.6999999, y: -2.01}
      - {x: -1.62, y: -2.11}
      - {x: -1.4499999, y: -2.28}
      - {x: -1.27, y: -2.45}
      - {x: -1.12, y: -2.6}
      - {x: -1.01, y: -2.6799998}
      - {x: -0.82, y: -2.77}
      - {x: -0.74, y: -2.8}
      - {x: -0.61, y: -2.84}
      - {x: -0.53, y: -2.86}
      - {x: -0.31, y: -2.8999999}
      - {x: -0.21, y: -2.9099998}
      - {x: 0.26, y: -2.9099998}
      - {x: 0.34, y: -2.8999999}
      - {x: 0.45, y: -2.8799999}
      - {x: 0.75, y: -2.8}
--- !u!50 &8571175782880655797
Rigidbody2D:
  serializedVersion: 4
  m_ObjectHideFlags: 0
  m_CorrespondingSourceObject: {fileID: 0}
  m_PrefabInstance: {fileID: 0}
  m_PrefabAsset: {fileID: 0}
  m_GameObject: {fileID: 8571175782880655796}
  m_BodyType: 0
  m_Simulated: 1
  m_UseFullKinematicContacts: 0
  m_UseAutoMass: 0
  m_Mass: 0.5
  m_LinearDrag: 0
  m_AngularDrag: 0.05
  m_GravityScale: 1
  m_Material: {fileID: 0}
  m_Interpolate: 0
  m_SleepingMode: 1
  m_CollisionDetection: 0
  m_Constraints: 0
--- !u!114 &8571175782880655801
MonoBehaviour:
  m_ObjectHideFlags: 0
  m_CorrespondingSourceObject: {fileID: 0}
  m_PrefabInstance: {fileID: 0}
  m_PrefabAsset: {fileID: 0}
  m_GameObject: {fileID: 8571175782880655796}
  m_Enabled: 1
  m_EditorHideFlags: 0
  m_Script: {fileID: 11500000, guid: 6eaaf0638ff53df49b631467c0ce83db, type: 3}
  m_Name: 
  m_EditorClassIdentifier: 
  EggRigidbody: {fileID: 0}
  myCar: {fileID: 0}
  Bomb: {fileID: 910983304622872407, guid: 6d04a30d45b3a6945a2da735fe81391f, type: 3}
