%YAML 1.1
%TAG !u! tag:unity3d.com,2011:
--- !u!1 &1552085686582292586
GameObject:
  m_ObjectHideFlags: 0
  m_CorrespondingSourceObject: {fileID: 0}
  m_PrefabInstance: {fileID: 0}
  m_PrefabAsset: {fileID: 0}
  serializedVersion: 6
  m_Component:
  - component: {fileID: 1103744316679348064}
  - component: {fileID: 7756773815557706318}
  - component: {fileID: 8181232535587546104}
  - component: {fileID: 2505930688741436872}
  - component: {fileID: 7827319032463289182}
  - component: {fileID: 114095581449267934}
  - component: {fileID: 281094035090454065}
  m_Layer: 8
  m_Name: coin
  m_TagString: Coin
  m_Icon: {fileID: 0}
  m_NavMeshLayer: 0
  m_StaticEditorFlags: 0
  m_IsActive: 1
--- !u!4 &1103744316679348064
Transform:
  m_ObjectHideFlags: 0
  m_CorrespondingSourceObject: {fileID: 0}
  m_PrefabInstance: {fileID: 0}
  m_PrefabAsset: {fileID: 0}
  m_GameObject: {fileID: 1552085686582292586}
  m_LocalRotation: {x: 0, y: 0, z: 0, w: 1}
  m_LocalPosition: {x: 0, y: 0, z: 0}
  m_LocalScale: {x: 1, y: 1, z: 0.35}
  m_Children: []
  m_Father: {fileID: 0}
  m_RootOrder: 0
  m_LocalEulerAnglesHint: {x: 0, y: 0, z: 0}
--- !u!212 &7756773815557706318
SpriteRenderer:
  m_ObjectHideFlags: 0
  m_CorrespondingSourceObject: {fileID: 0}
  m_PrefabInstance: {fileID: 0}
  m_PrefabAsset: {fileID: 0}
  m_GameObject: {fileID: 1552085686582292586}
  m_Enabled: 1
  m_CastShadows: 0
  m_ReceiveShadows: 0
  m_DynamicOccludee: 1
  m_MotionVectors: 1
  m_LightProbeUsage: 1
  m_ReflectionProbeUsage: 1
  m_RenderingLayerMask: 1
  m_RendererPriority: 0
  m_Materials:
  - {fileID: 10754, guid: 0000000000000000f000000000000000, type: 0}
  m_StaticBatchInfo:
    firstSubMesh: 0
    subMeshCount: 0
  m_StaticBatchRoot: {fileID: 0}
  m_ProbeAnchor: {fileID: 0}
  m_LightProbeVolumeOverride: {fileID: 0}
  m_ScaleInLightmap: 1
  m_PreserveUVs: 0
  m_IgnoreNormalsForChartDetection: 0
  m_ImportantGI: 0
  m_StitchLightmapSeams: 0
  m_SelectedEditorRenderState: 0
  m_MinimumChartSize: 4
  m_AutoUVMaxDistance: 0.5
  m_AutoUVMaxAngle: 89
  m_LightmapParameters: {fileID: 0}
  m_SortingLayerID: -1878036177
  m_SortingLayer: 3
  m_SortingOrder: 0
  m_Sprite: {fileID: 21300000, guid: 59e94ff878937b5418b59f7e201f2d71, type: 3}
  m_Color: {r: 1, g: 1, b: 1, a: 1}
  m_FlipX: 0
  m_FlipY: 0
  m_DrawMode: 0
  m_Size: {x: 3.28, y: 3.29}
  m_AdaptiveModeThreshold: 0.5
  m_SpriteTileMode: 0
  m_WasSpriteAssigned: 1
  m_MaskInteraction: 0
  m_SpriteSortPoint: 0
--- !u!50 &8181232535587546104
Rigidbody2D:
  serializedVersion: 4
  m_ObjectHideFlags: 0
  m_CorrespondingSourceObject: {fileID: 0}
  m_PrefabInstance: {fileID: 0}
  m_PrefabAsset: {fileID: 0}
  m_GameObject: {fileID: 1552085686582292586}
  m_BodyType: 0
  m_Simulated: 1
  m_UseFullKinematicContacts: 0
  m_UseAutoMass: 0
  m_Mass: 10
  m_LinearDrag: 0
  m_AngularDrag: 0.05
  m_GravityScale: 1
  m_Material: {fileID: 0}
  m_Interpolate: 0
  m_SleepingMode: 1
  m_CollisionDetection: 0
  m_Constraints: 5
--- !u!58 &2505930688741436872
CircleCollider2D:
  m_ObjectHideFlags: 0
  m_CorrespondingSourceObject: {fileID: 0}
  m_PrefabInstance: {fileID: 0}
  m_PrefabAsset: {fileID: 0}
  m_GameObject: {fileID: 1552085686582292586}
  m_Enabled: 1
  m_Density: 1
  m_Material: {fileID: 0}
  m_IsTrigger: 1
  m_UsedByEffector: 0
  m_UsedByComposite: 0
  m_Offset: {x: 0, y: 0}
  serializedVersion: 2
  m_Radius: 1.72
--- !u!58 &7827319032463289182
CircleCollider2D:
  m_ObjectHideFlags: 0
  m_CorrespondingSourceObject: {fileID: 0}
  m_PrefabInstance: {fileID: 0}
  m_PrefabAsset: {fileID: 0}
  m_GameObject: {fileID: 1552085686582292586}
  m_Enabled: 0
  m_Density: 1
  m_Material: {fileID: 0}
  m_IsTrigger: 0
  m_UsedByEffector: 1
  m_UsedByComposite: 0
  m_Offset: {x: 0, y: 0}
  serializedVersion: 2
  m_Radius: 0.95
--- !u!114 &114095581449267934
MonoBehaviour:
  m_ObjectHideFlags: 0
  m_CorrespondingSourceObject: {fileID: 0}
  m_PrefabInstance: {fileID: 0}
  m_PrefabAsset: {fileID: 0}
  m_GameObject: {fileID: 1552085686582292586}
  m_Enabled: 1
  m_EditorHideFlags: 0
  m_Script: {fileID: 11500000, guid: 0bcb350316b84ba458c4721937e68830, type: 3}
  m_Name: 
  m_EditorClassIdentifier: 
  CoinValue: {fileID: 5041117786835924527, guid: b3ed3f1580b4dd24b9db4f36ffc1bb09,
    type: 3}
--- !u!60 &281094035090454065
PolygonCollider2D:
  m_ObjectHideFlags: 0
  m_CorrespondingSourceObject: {fileID: 0}
  m_PrefabInstance: {fileID: 0}
  m_PrefabAsset: {fileID: 0}
  m_GameObject: {fileID: 1552085686582292586}
  m_Enabled: 1
  m_Density: 1
  m_Material: {fileID: 0}
  m_IsTrigger: 0
  m_UsedByEffector: 0
  m_UsedByComposite: 0
  m_Offset: {x: 0, y: 0}
  m_SpriteTilingProperty:
    border: {x: 0, y: 0, z: 0, w: 0}
    pivot: {x: 0.5, y: 0.5}
    oldSize: {x: 3.28, y: 3.29}
    newSize: {x: 3.28, y: 3.29}
    adaptiveTilingThreshold: 0.5
    drawMode: 0
    adaptiveTiling: 0
  m_AutoTiling: 0
  m_Points:
    m_Paths:
    - - {x: 0.52, y: -1.5749999}
      - {x: 0.59999996, y: -1.545}
      - {x: 0.82, y: -1.4449999}
      - {x: 0.91999996, y: -1.385}
      - {x: 1.09, y: -1.255}
      - {x: 1.31, y: -1.025}
      - {x: 1.4499999, y: -0.815}
      - {x: 1.54, y: -0.615}
      - {x: 1.5899999, y: -0.475}
      - {x: 1.62, y: -0.355}
      - {x: 1.64, y: -0.255}
      - {x: 1.64, y: 0.255}
      - {x: 1.63, y: 0.315}
      - {x: 1.61, y: 0.45499998}
      - {x: 1.53, y: 0.645}
      - {x: 1.4399999, y: 0.835}
      - {x: 1.35, y: 0.97499996}
      - {x: 1.1999999, y: 1.155}
      - {x: 1.02, y: 1.3249999}
      - {x: 0.90999997, y: 1.395}
      - {x: 0.65999997, y: 1.525}
      - {x: 0.56, y: 1.5649999}
      - {x: 0.39, y: 1.615}
      - {x: 0.22999999, y: 1.645}
      - {x: -0.22999999, y: 1.645}
      - {x: -0.34, y: 1.625}
      - {x: -0.5, y: 1.5849999}
      - {x: -0.61, y: 1.545}
      - {x: -0.81, y: 1.4549999}
      - {x: -0.94, y: 1.375}
      - {x: -1.02, y: 1.3149999}
      - {x: -1.28, y: 1.0649999}
      - {x: -1.41, y: 0.885}
      - {x: -1.56, y: 0.60499996}
      - {x: -1.61, y: 0.405}
      - {x: -1.64, y: 0.255}
      - {x: -1.64, y: -0.24499999}
      - {x: -1.63, y: -0.305}
      - {x: -1.5899999, y: -0.475}
      - {x: -1.54, y: -0.615}
      - {x: -1.4599999, y: -0.79499996}
      - {x: -1.42, y: -0.865}
      - {x: -1.3, y: -1.035}
      - {x: -1.09, y: -1.255}
      - {x: -0.95, y: -1.355}
      - {x: -0.87, y: -1.415}
      - {x: -0.59999996, y: -1.545}
      - {x: -0.38, y: -1.625}
      - {x: -0.24, y: -1.645}
      - {x: 0.19999999, y: -1.645}
      - {x: 0.32999998, y: -1.625}
      - {x: 0.37, y: -1.615}
